Analysis and figures
…
Study areas

Study countries table

In [8]:

sheet_StudyArea |>
  select(`Review ID`, Country) |>
  separate_longer_delim(Country, ", ") |>
  distinct() |>
  summarise(Articles = n(), .by = Country) |>
  arrange(-Articles)

# A tibble: 27 × 2
   Country                  Articles
   <chr>                       <int>
 1 United States of America       55
 2 Canada                          6
 3 Italy                           5
 4 Switzerland                     5
 5 France                          4
 6 Australia                       4
 7 Brazil                          2
 8 Costa Rica                      2
 9 New Zealand                     2
10 Panama                          1
# ℹ 17 more rows
…
