Analysis and figures
…
First, a table is generated presenting the number of articles using data from each country with at least one article.

stat_studyCountries <- sheet_StudyArea |>
  select(`Review ID`, Country) |>
  separate_longer_delim(Country, ", ") |>
  distinct() |>
  mutate(TotalArticles = length(unique(`Review ID`))) |>
  summarise(Articles = n(), .by = c(Country, TotalArticles)) |>
  mutate(Proportion = round(Articles/TotalArticles,2)) |>
  select(-TotalArticles) |>
  arrange(-Articles)
stat_studyCountries

# A tibble: 27 × 3
   Country                  Articles Proportion
   <chr>                       <int>      <dbl>
 1 United States of America       55       0.6 
 2 Canada                          6       0.07
 3 Italy                           5       0.05
 4 Switzerland                     5       0.05
 5 France                          4       0.04
 6 Australia                       4       0.04
 7 Brazil                          2       0.02
 8 Costa Rica                      2       0.02
 9 New Zealand                     2       0.02
10 Panama                          1       0.01
# ℹ 17 more rows
…
